
#Step 1: Building an image
#Syntax: docker build -t <image-name> <location of dockerfile>
-------------------------------------------------------------------
docker build -t my-httpd .

#Step 2: List all the images
#Syntax: docker images
-------------------------------------------------------------------
docker images

#Step 3: Inspect the Image
------------------------------------------------------------------
docker inspect <image-id>

#Step 4: Running a container from the image
#Syntax: docker run -itd --name <container-name> -p <host-port>:<port in container> image-name:tag
# note in the above syntax:
# -d : represents (detached mode), note that if you dont run this in detached mode, the life of the container will be the life of the terminal in which you are executing it.
# -p : represents the host-port to container-port mapping, if you substitute it with -P you will get a random port allocated by docker
# --name : represents the name of the container 
-------------------------------------------------------------------
docker run -itd --name my-http-container-1 -p 5555:80 my-httpd:latest
docker run -itd --name my-http-container-2 -p 5556:80 my-httpd:latest
docker run -itd --name my-http-container-with-random-port -P my-httpd:latest

#note if you run this it will NOT run in detached mode.
docker run -it --name my-http-container-not-detached-mode -p 5557:80 my-httpd:latest

Step 5: View all the containers
-------------------------------------------------------------------
# Shows all the containers which are running
docker ps 

#Shows all the containers stopped and running
docker ps -a

Step 6: Inspect the container and image
-------------------------------------------------------------------
docker inspect <container-id>

Step 7: View Container logs
-------------------------------------------------------------------

# View the logs of the container
docker logs <container-id>

# Tail the logs of the container
docker logs -ft <container-id>

Step 8: Stop the container
-------------------------------------------------------------------
docker stop <container-id>

Step 9: Stop the container
-------------------------------------------------------------------
docker start <container-id>

Step 10: Logging into the container
-------------------------------------------------------------------
#Note: The container must be started before we can do this.
docker exec -it <container-id> /bin/bash

Step 11: Remove all the containers and images
-------------------------------------------------------------------
#Note: To remove an image the corresponding container built from that image will need to be removed.

#Remove a specific container
docker rm <container-id>

#Remove all containers
docker rm $(docker ps -a -q)
docker rm `docker ps -a -q`

# remove image (note: no containers for this image should be running)
docker rmi <image-id>

# remove all images
docker rmi $(docker images -q)
docker rm `docker images -q`
